\relax 
\catcode `"\active 
\citation{barker2009using}
\citation{younge2010efficient}
\citation{danalis2010scalable}
\citation{huang2009energy}
\citation{gtx2012680}
\citation{danalis2010scalable}
\citation{rodiniaBS}
\select@language{brazil}
\@writefile{toc}{\select@language{brazil}}
\@writefile{lof}{\select@language{brazil}}
\@writefile{lot}{\select@language{brazil}}
\@writefile{toc}{\contentsline {section}{\numberline {1}Introdu\IeC {\c c}\IeC {\~a}o}{1}}
\newlabel{sec:introducao}{{1}{1}}
\@writefile{toc}{\contentsline {section}{\numberline {2}Trabalhos Relacionados}{1}}
\newlabel{sec:trabrel}{{2}{1}}
\@writefile{toc}{\contentsline {section}{\numberline {3}Mensura\IeC {\c c}\IeC {\~a}o de Desempenho e Consumo Energ\IeC {\'e}tico}{1}}
\newlabel{sec:benchmarks}{{3}{1}}
\citation{padoin2013evaluatingCLUSTER}
\citation{glaskowsky2009nvidia}
\citation{evergreen}
\citation{intel2012}
\@writefile{toc}{\contentsline {subsection}{\numberline {3.1}Benchmarks}{2}}
\@writefile{toc}{\contentsline {subsection}{\numberline {3.2}Equipamento para Medi\IeC {\c c}\IeC {\~a}o}{2}}
\@writefile{toc}{\contentsline {section}{\numberline {4}Experimentos}{2}}
\newlabel{sec:proposta}{{4}{2}}
\@writefile{lot}{\contentsline {table}{\numberline {1}{\ignorespaces Especifica\IeC {\c c}\IeC {\~o}es T\IeC {\'e}cnicas dos Equipamentos}}{3}}
\newlabel{Tabela1}{{1}{3}}
\@writefile{toc}{\contentsline {section}{\numberline {5}Resultados}{3}}
\@writefile{toc}{\contentsline {subsection}{\numberline {5.1}Benchmark SHOC}{3}}
\newlabel{SHOC1}{{5.1}{3}}
\newlabel{fig:a}{{1(a)}{3}}
\newlabel{sub@fig:a}{{(a)}{3}}
\newlabel{fig:b}{{1(b)}{3}}
\newlabel{sub@fig:b}{{(b)}{3}}
\@writefile{lof}{\contentsline {figure}{\numberline {1}{\ignorespaces Resultados dos Testes com o Benchmark SHOC}}{3}}
\@writefile{lof}{\contentsline {subfigure}{\numberline{(a)}{\ignorespaces {Velocidade de Barramento}}}{3}}
\@writefile{lof}{\contentsline {subfigure}{\numberline{(b)}{\ignorespaces {Desempenho}}}{3}}
\newlabel{fig:aaaa}{{1}{3}}
\@writefile{toc}{\contentsline {subsection}{\numberline {5.2}Benchmark Rodinia}{3}}
\newlabel{Rodinia}{{5.2}{3}}
\bibstyle{sbc}
\bibdata{referencias}
\bibcite{barker2009using}{Barker et~al. 2009}
\bibcite{rodiniaBS}{Che et~al. 2009}
\bibcite{danalis2010scalable}{Danalis 2010}
\bibcite{glaskowsky2009nvidia}{Glaskowsky 2009}
\bibcite{huang2009energy}{Huang et~al. 2009}
\bibcite{intel2012}{{INTEL Inc} 2012}
\bibcite{gtx2012680}{{NVIDIA Inc} 2012}
\bibcite{padoin2013evaluatingCLUSTER}{Padoin et~al. 2013}
\bibcite{evergreen}{Rahimi et~al. 2013}
\bibcite{younge2010efficient}{Younge et~al. 2010}
\@writefile{lot}{\contentsline {table}{\numberline {2}{\ignorespaces Resultados mensurados com o Benchmark Rondinia}}{4}}
\newlabel{Tabela1}{{2}{4}}
\@writefile{toc}{\contentsline {section}{\numberline {6}Conclus\IeC {\~a}o e Trabalhos Futuros}{4}}
\newlabel{sec:conclusao}{{6}{4}}
